Survival Analysis Practical
…
Preface

Library

library(pacman)
p_load(haven, dplyr, psych, lubridate, knitr, ggplot2, survival, broom, survminer, mfp)

Data Wrangling

Import dataset

WHASDS <- read_spss("whas500.sav")
WHASDS

## # A tibble: 500 x 22
##       id   age gender    hr sysbp diasbp   bmi   cvd   afb   sho   chf
##    <dbl> <dbl>  <dbl> <dbl> <dbl>  <dbl> <dbl> <dbl> <dbl> <dbl> <dbl>
##  1     1    83      0    89   152     78  25.5     1     1     0     0
##  2     2    49      0    84   120     60  24.0     1     0     0     0
##  3     3    70      1    83   147     88  22.1     0     0     0     0
##  4     4    70      0    65   123     76  26.6     1     0     0     1
##  5     5    70      0    63   135     85  24.4     1     0     0     0
##  6     6    70      0    76    83     54  23.2     1     0     0     0
##  7     7    57      0    73   191    116  39.5     1     0     0     0
##  8     8    55      0    91   147     95  27.1     1     0     0     0
##  9     9    88      1    63   209    100  27.4     1     0     0     1
## 10    10    54      0   104   166    106  25.5     1     0     0     0
## # ... with 490 more rows, and 11 more variables: av3 <dbl>, miord <dbl>,
## #   mitype <dbl>, year <dbl>, los <dbl>, dstat <dbl>, lenfol <dbl>,
## #   fstat <dbl>, admitdate <date>, disdate <date>, fdate <date>
…
                            labels = c("alive", "dead"))) %>%
  select (id,
          FUpStatus,
          admitdate,
          fdate,
          lenfol,
          age,
          gender,
          bmi,
          sysbp,
          MIOrder,
          MIType)
WHASDS2

## # A tibble: 500 x 11
##       id FUpStatus admitdate  fdate      lenfol   age gender   bmi sysbp
##    <dbl> <fct>     <date>     <date>      <dbl> <dbl> <fct>  <dbl> <dbl>
##  1     1 alive     1997-01-13 2002-12-31   2178    83 male    25.5   152
##  2     2 alive     1997-01-19 2002-12-31   2172    49 male    24.0   120
##  3     3 alive     1997-01-01 2002-12-31   2190    70 female  22.1   147
##  4     4 dead      1997-02-17 1997-12-11    297    70 male    26.6   123
##  5     5 alive     1997-03-01 2002-12-31   2131    70 male    24.4   135
##  6     6 dead      1997-03-11 1997-03-12      1    70 male    23.2    83
##  7     7 alive     1997-03-10 2002-12-31   2122    57 male    39.5   191
##  8     8 dead      1997-01-11 2001-02-15   1496    55 male    27.1   147
##  9     9 dead      1996-12-31 1999-07-09    920    88 female  27.4   209
## 10    10 alive     1997-01-16 2002-12-31   2175    54 male    25.5   166
## # ... with 490 more rows, and 2 more variables: MIOrder <fct>,
## #   MIType <fct>
…
          FUpStatus,
          dur_year,
          age,
          gender,
          bmi,
          sysbp,
          MIOrder,
          MIType,
          admitdate,
          fdate,
          dur_day,
          lenfol)
WHASDS2

## # A tibble: 500 x 13
##       id FUpStatus dur_year   age gender   bmi sysbp MIOrder MIType
##    <dbl> <fct>        <dbl> <dbl> <fct>  <dbl> <dbl> <fct>   <fct> 
##  1     1 alive      5.97       83 male    25.5   152 recurr~ non Q~
##  2     2 alive      5.95       49 male    24.0   120 first   Q-wave
##  3     3 alive      6          70 female  22.1   147 first   Q-wave
##  4     4 dead       0.814      70 male    26.6   123 first   Q-wave
##  5     5 alive      5.84       70 male    24.4   135 first   Q-wave
##  6     6 dead       0.00274    70 male    23.2    83 first   non Q~
##  7     7 alive      5.81       57 male    39.5   191 first   Q-wave
##  8     8 dead       4.10       55 male    27.1   147 first   Q-wave
##  9     9 dead       2.52       88 female  27.4   209 first   non Q~
## 10    10 alive      5.96       54 male    25.5   166 first   non Q~
## # ... with 490 more rows, and 4 more variables: admitdate <date>,
## #   fdate <date>, dur_day <dbl>, lenfol <dbl>
…
