SurvivalAnalysisPrac
…
martingale residual

scaled schoenfeld residual

dfbeta residual

Inference

augment(CPH_PrelimFinalModel,
        data = DataSet)

## # A tibble: 262 x 19
##    id        sex    race doa        dod          gcs   sbp   dbp   age
##    <chr> <dbl+l> <dbl+l> <date>     <date>     <dbl> <dbl> <dbl> <dbl>
##  1 B040~ 2 [fem~ 1 [mal~ 2012-05-23 2012-05-29    14   108    99    80
##  2 A076~ 2 [fem~ 1 [mal~ 2011-10-05 2011-10-10    11   126    70    74
##  3 A170~ 1 [mal~ 4 [oth~ 2011-02-07 2011-02-25    12   167    71    73
##  4 B459~ 1 [mal~ 1 [mal~ 2011-03-06 2011-03-29    13   172   100    54
##  5 B494~ 1 [mal~ 1 [mal~ 2012-06-08 2012-06-11    15   160    88    70
##  6 B481~ 2 [fem~ 1 [mal~ 2011-12-23 2012-01-12     8   173    95    66
##  7 A071~ 1 [mal~ 1 [mal~ 2011-04-17 2011-04-21    15   120    82    25
##  8 A081~ 1 [mal~ 1 [mal~ 2012-02-04 2012-02-06    15   143    76    56
##  9 B480~ 2 [fem~ 1 [mal~ 2011-12-19 2012-01-01    11   169    92    55
## 10 B283~ 1 [mal~ 1 [mal~ 2011-11-15 2011-11-21    11   173   123    29
## # ... with 252 more rows, and 10 more variables: event <dbl+lbl>,
## #   dm2 <dbl+lbl>, hpt2 <dbl+lbl>, race2 <dbl+lbl>, event_s <dbl>,
## #   SBP_Cat <fct>, Dur_Days <dbl>, .fitted <dbl>, .se.fit <dbl>,
## #   .resid <dbl>
…
